./resources/training_set/Arnold/Arnold_01.jpg;0;252;366;421;365
./resources/training_set/Arnold/Arnold_02.jpg;0;172;311;378;313
./resources/training_set/Arnold/Arnold_03.jpg;0;485;1132;985;1039
./resources/training_set/Arnold/Arnold_04.jpg;0;66;75;128;78
./resources/training_set/Arnold/Arnold_05.jpg;0;84;151;147;148
./resources/training_set/Arnold/Arnold_06.jpg;0;89;117;141;124
./resources/training_set/Arnold/Arnold_07.jpg;0;213;111;280;108
./resources/training_set/Brad/Brad_01.jpg;1;126;152;193;161
./resources/training_set/Brad/Brad_02.jpg;1;355;453;577;434
./resources/training_set/Brad/Brad_03.jpg;1;344;443;576;450
./resources/training_set/Brad/Brad_04.jpg;1;417;549;648;577
./resources/training_set/Brad/Brad_05.jpg;1;104;145;204;146
./resources/training_set/Brad/Brad_06.jpg;1;388;347;536;342
./resources/training_set/Brad/Brad_07.jpg;1;262;132;407;142

./resources/training_set/Clooney/Clooney_01.jpg;2
./resources/training_set/Clooney/Clooney_02.jpg;2
./resources/training_set/Clooney/Clooney_03.jpg;2
./resources/training_set/Clooney/Clooney_04.jpg;2
./resources/training_set/Clooney/Clooney_05.jpg;2
./resources/training_set/Clooney/Clooney_06.jpg;2
./resources/training_set/Clooney/Clooney_07.jpg;2

./resources/training_set/Reeves/Reeves_01.jpg;3
./resources/training_set/Reeves/Reeves_02.jpg;3
./resources/training_set/Reeves/Reeves_03.jpg;3
./resources/training_set/Reeves/Reeves_04.jpg;3
./resources/training_set/Reeves/Reeves_05.jpg;3
./resources/training_set/Reeves/Reeves_06.jpg;3
./resources/training_set/Reeves/Reeves_07.jpg;3

./resources/training_set/Depp/Depp_01.jpg;4
./resources/training_set/Depp/Depp_02.jpg;4
./resources/training_set/Depp/Depp_03.jpg;4
./resources/training_set/Depp/Depp_04.jpg;4
./resources/training_set/Depp/Depp_05.jpg;4
./resources/training_set/Depp/Depp_06.jpg;4
./resources/training_set/Depp/Depp_07.jpg;4


./resources/training_set/Watson/Watson_01.jpg;5
./resources/training_set/Watson/Watson_02.jpg;5
./resources/training_set/Watson/Watson_03.jpg;5
./resources/training_set/Watson/Watson_04.jpg;5
./resources/training_set/Watson/Watson_05.jpg;5
./resources/training_set/Watson/Watson_06.jpg;5
./resources/training_set/Watson/Watson_07.jpg;5

./resources/training_set/Watts/Watts_01.jpg;6
./resources/training_set/Watts/Watts_02.jpg;6
./resources/training_set/Watts/Watts_03.jpg;6
./resources/training_set/Watts/Watts_04.jpg;6
./resources/training_set/Watts/Watts_05.jpg;6
./resources/training_set/Watts/Watts_06.jpg;6
./resources/training_set/Watts/Watts_07.jpg;6

./resources/training_set/Lopez/Lopez_01.jpg;7
./resources/training_set/Lopez/Lopez_02.jpg;7
./resources/training_set/Lopez/Lopez_03.jpg;7
./resources/training_set/Lopez/Lopez_04.jpg;7
./resources/training_set/Lopez/Lopez_05.jpg;7
./resources/training_set/Lopez/Lopez_06.jpg;7
./resources/training_set/Lopez/Lopez_07.jpg;7

./resources/training_set/Perry/Perry_01.jpg;8
./resources/training_set/Perry/Perry_02.jpg;8
./resources/training_set/Perry/Perry_03.jpg;8
./resources/training_set/Perry/Perry_04.jpg;8
./resources/training_set/Perry/Perry_05.jpg;8
./resources/training_set/Perry/Perry_06.jpg;8
./resources/training_set/Perry/Perry_07.jpg;8

./resources/training_set/Jolie/Jolie_01.jpg;9
./resources/training_set/Jolie/Jolie_02.jpg;9
./resources/training_set/Jolie/Jolie_03.jpg;9
./resources/training_set/Jolie/Jolie_04.jpg;9
./resources/training_set/Jolie/Jolie_05.jpg;9
./resources/training_set/Jolie/Jolie_06.jpg;9
./resources/training_set/Jolie/Jolie_07.jpg;9